[gd_resource type="Theme" load_steps=2 format=3 uid="uid://dytreohatcx27"]

[sub_resource type="StyleBoxFlat" id="StyleBoxFlat_wplyw"]
bg_color = Color(0, 0.45098, 0.52549, 1)

[resource]
Button/styles/pressed = SubResource("StyleBoxFlat_wplyw")
MarginContainer/constants/margin_bottom = 8
MarginContainer/constants/margin_left = 8
MarginContainer/constants/margin_right = 8
MarginContainer/constants/margin_top = 8
